…
```r
spectra <- read_dpt(r"(path\to\file.dpt)")

#example output, V1 = wavelength/cm
>        V1       V2       V3       V4       V5       V6       V7       V8      V9     V10      V11      V12      V13
1 3997.266 -0.26139 -0.17894 -0.21055 -0.18488 -0.23896 -0.22172 -0.21944 -0.2503 -0.2062 -0.21844 -0.24292 -0.06631
```

### spectra_to_long()
Reads a list object (as from read_dpt()) and transforms it to a tibble in long format (tidy). This function can be used if you want to directly work with the data in R.

```r
> spectra_to_long(spectra)
# A tibble: 630,484 x 3
   wavelength particle       absorbtion_unit
        <dbl> <chr>                    <dbl>
 1      3997. abs_particle1           -0.261
 2      3997. abs_particle2           -0.179
 3      3997. abs_particle3           -0.211
 4      3997. abs_particle4           -0.185
 5      3997. abs_particle5           -0.239
 6      3997. abs_particle6           -0.222
 7      3997. abs_particle7           -0.219
 8      3997. abs_particle8           -0.250
 9      3997. abs_particle9           -0.206
10      3997. abs_particle10          -0.218
# ... with 630,474 more rows
```
…
```
Console Output example:

```r
Nr of Columns in spectra file =  327
Nr of Particles in data =  326


 Renaming data...
done!


 Transform data to long format..
# A tibble: 630,484 x 3
   wavelength particle       absorbtion_unit
        <dbl> <chr>                    <dbl>
 1      3997. abs_particle1           -0.261
 2      3997. abs_particle2           -0.179
 3      3997. abs_particle3           -0.211
 4      3997. abs_particle4           -0.185
 5      3997. abs_particle5           -0.239
 6      3997. abs_particle6           -0.222
 7      3997. abs_particle7           -0.219
 8      3997. abs_particle8           -0.250
 9      3997. abs_particle9           -0.206
10      3997. abs_particle10          -0.218
# ... with 630,474 more rows
…
